{
  "title": "Introduction to Helm",
  "description": "Learn how to install helm, create your first helm chart and some useful helm commands",
  "difficulty": "Beginner",
  "time": "30",
  "details": {
    "steps": [
      {
        "title": "Install Helm",
        "text": "step1.md"
      },
      {
        "title": "Your first chart",
        "text": "step2.md"
      },
      {
        "title": "The Chart File Structure",
        "text": "step3.md"
      },
      {
        "title": "Helm Commands",
        "text": "step4.md"
      },
      {
        "title": "Helm repository",
        "text": "step5.md"
      }
    ],
    "intro": {
      "text": "intro.md"
    },
    "finish": {
      "text": "finish.md"
    }
  },
  "environment": {
    "uilayout": "terminal"
  },
  "backend": {
    "imageid": "kubernetes-cluster-running:1.18"
  }
}